412915 685541 509
539257 452089 470
575455 874439 525
959934 939660 414
907600 503722 525
9650 863797 525
60465 382290 443
476149 735209 509
396228 796246 509
253288 596375 470
344700 230168 443
737181 433330 509
921479 770656 525
720172 761564 424
945711 960149 414
359975 800048 509
169686 238679 443
783973 899052 525
459999 675131 509
760891 615737 509
54508 483940 449
802889 334361 509
451329 530683 470
426608 804524 509
151175 983434 525
921825 351327 525
372909 729210 509
96721 156850 383
804009 224679 509
202504 478435 449
517916 155101 470
702361 735804 504
849876 491762 525
929772 114038 525
388459 430400 449
239287 330633 407
814092 185468 509
509067 918737 525
881750 216568 525
482635 325470 449
521689 714801 509
907895 243736 525
916605 147030 525
296678 716237 509
64257 803606 509
771026 911513 525
385953 229924 443
3597 916081 525
592210 936906 525
898514 590860 525
628839 411431 509
836598 367470 509
267925 351495 441
39422 781330 509
746323 846621 525
580810 945907 525
491867 192671 449
156398 257527 443
705870 789502 468
127841 486137 449
44596 358401 443
790862 896945 525
556705 762941 509
194632 225090 386
432563 930483 525
905563 233120 525
436343 286022 449
708733 491932 509
281387 713687 509
437156 168910 449
65822 110527 354
660593 629150 429
897780 73896 525
971273 984174 427
159750 205512 370
110917 841128 525
152998 780091 509
589055 539039 452
612032 557117 434
132173 608548 470
568283 986689 525
644874 227752 509
620735 128560 470
26383 333577 443
434417 814657 509
991105 31739 525
950106 856561 507
888324 71380 525
778950 78112 509
395534 151923 443
920711 697928 525
586070 511566 470
840506 512986 525
275242 546455 470
909025 752439 525
666080 74059 509
36079 165191 383
332133 374487 441
744995 936314 525
903665 442535 525
154124 585433 470
551707 121292 470
356715 716168 509
101576 167944 383
301749 717594 509
516479 194425 470
87543 793553 509
301656 100193 443
455252 373680 449
694035 752398 504
587114 394687 470
543302 349674 470
930835 582107 525
158446 620001 470
115335 485047 449
886181 926954 476
19999 870707 525
267828 142901 443
945460 245143 525
960960 303087 525
225446 315692 443
986977 666037 525
430649 988727 525
982352 566738 525
689049 345363 509
94334 658742 509
352766 38890 443
308417 785846 509
37994 433295 449
249257 498938 449
820752 207291 509
132785 445704 449
238287 996515 525
493202 319594 449
548827 650290 509
100273 943293 525
70973 761320 509
275704 147481 443
724016 126863 509
298369 775192 509
260268 194261 443
191983 680517 509
940225 227403 525
557079 562723 359
523225 206393 470
804892 230551 509
662048 475355 509
705817 552883 509
256255 736636 509
826294 625311 509
836483 261614 509
918685 86758 525
348701 290403 441
264263 96282 443
674050 411372 509
592048 558117 434
764147 61387 509
622313 479726 470
480663 617142 470
218764 944612 525
2947 372459 443
458889 500202 444
130396 710762 509
940575 593823 525
611028 99412 470
672615 814857 504
981136 975518 427
854922 663645 525
456234 781362 509
122323 671213 509
350610 337954 441
776607 392686 509
988303 843721 507
400497 966821 525
514660 432384 470
192418 937902 525
286605 200954 443
654454 504041 509
177256 578301 470
54089 403841 443
401969 218942 443
424104 155930 449
231078 927191 525
754428 47191 509
988041 914023 507
398816 887045 525
345732 294982 384
508628 946599 525
395686 648803 509
484363 940574 525
298635 566717 470
560479 94261 470
303579 217850 443
369509 907463 525
615593 490151 470
669594 911309 525
415867 197517 449
742716 990600 525
804201 683052 504
267573 777223 509
976734 358935 525
489266 390486 449
754684 148651 509
663507 882883 525
7324 424301 449
50683 264782 443
434482 526911 470
475910 37420 449
316303 139903 443
310810 583096 470
312449 96509 443
711126 223351 509
424725 601494 470
944744 998854 458
623293 629682 509
373563 231010 441
899020 928214 476
737421 468308 509
531869 881766 525
437470 985527 525
968852 177339 525
488388 846887 525
178684 509597 449
274780 684296 509
965200 452061 525
325851 197168 443
980117 184402 525
213826 615858 470
750820 744878 393
874864 291592 525
634438 431867 509
902673 473820 525
64248 560568 470
527476 709363 509
152717 799050 509
367035 511287 449
484147 885153 525
137963 538975 470
558285 319848 470
327267 836861 509
272768 591848 470
94506 509987 449
758666 497594 509
406241 842611 525
389900 306215 441
77143 74882 351
319528 105374 443
635131 736680 504
931141 980432 507
945196 415143 525
